<svg width="521px" height="336px" viewBox="0 0 521 336" version="1.1" xmlns="http://www.w3.org/2000/svg" xmlns:xlink="http://www.w3.org/1999/xlink">
    <defs></defs>
    <g id="Layouts" stroke="none" stroke-width="1" fill="none" fill-rule="evenodd">
        <g id="Artboard" transform="translate(-158.000000, -285.000000)" stroke-width="9" stroke="#37853F">
            <polyline id="Path-2" points="161.327667 616.824731 281.646496 512.015352 351.970347 564.420042 464.798994 416.375664 538.14838 472.714096 675 288"></polyline>
        </g>
    </g>
</svg>
